{
  "width": 9,
  "height": 15,
  "crackable": [

  ],
  "walls": [
    {
      "x": 0,
      "y": 0
    },
    {
      "x": 0,
      "y": 1
    },
    {
      "x": 0,
      "y": 2
    },
    {
      "x": 0,
      "y": 3
    },
    {
      "x": 0,
      "y": 4
    },
    {
      "x": 0,
      "y": 5
    },
    {
      "x": 0,
      "y": 6
    },
    {
      "x": 0,
      "y": 7
    },
    {
      "x": 0,
      "y": 8
    },
    {
      "x": 0,
      "y": 9
    },
    {
      "x": 0,
      "y": 10
    },
    {
      "x": 0,
      "y": 11
    },
    {
      "x": 0,
      "y": 12
    },
    {
      "x": 0,
      "y": 13
    },
    {
      "x": 0,
      "y": 14
    },
    {
      "x": 1,
      "y": 0
    },
    {
      "x": 1,
      "y": 14
    },
    {
      "x": 2,
      "y": 0
    },
    {
      "x": 2,
      "y": 14
    },
    {
      "x": 3,
      "y": 0
    },
    {
      "x": 3,
      "y": 14
    },
    {
      "x": 4,
      "y": 0
    },
    {
      "x": 4,
      "y": 14
    },
    {
      "x": 5,
      "y": 0
    },
    {
      "x": 5,
      "y": 14
    },
    {
      "x": 6,
      "y": 0
    },
    {
      "x": 6,
      "y": 14
    },
    {
      "x": 7,
      "y": 0
    },
    {
      "x": 7,
      "y": 14
    },
    {
      "x": 8,
      "y": 0
    },
    {
      "x": 8,
      "y": 1
    },
    {
      "x": 8,
      "y": 2
    },
    {
      "x": 8,
      "y": 3
    },
    {
      "x": 8,
      "y": 4
    },
    {
      "x": 8,
      "y": 5
    },
    {
      "x": 8,
      "y": 6
    },
    {
      "x": 8,
      "y": 7
    },
    {
      "x": 8,
      "y": 8
    },
    {
      "x": 8,
      "y": 9
    },
    {
      "x": 8,
      "y": 10
    },
    {
      "x": 8,
      "y": 11
    },
    {
      "x": 8,
      "y": 12
    },
    {
      "x": 8,
      "y": 13
    },
    {
      "x": 8,
      "y": 14
    },
    {
      "x": 1,
      "y": 7
    },
    {
      "x": 2,
      "y": 5
    },
    {
      "x": 3,
      "y": 4
    },
    {
      "x": 3,
      "y": 8
    },
    {
      "x": 4,
      "y": 2
    },
    {
      "x": 5,
      "y": 1
    },
    {
      "x": 7,
      "y": 8
    }
  ],
  "blocks": [
    {
      "x": 2,
      "y": 8
    },
    {
      "x": 2,
      "y": 11
    },
    {
      "x": 3,
      "y": 3
    },
    {
      "x": 4,
      "y": 1
    },
    {
      "x": 5,
      "y": 12
    }
  ],
  "wins": [
    {
      "x": 7,
      "y": 13
    }
  ],
  "hint": ""
}
