<?xml version="1.0" encoding="UTF-8" standalone="no"?>
<svg
   xmlns:dc="http://purl.org/dc/elements/1.1/"
   xmlns:cc="http://creativecommons.org/ns#"
   xmlns:rdf="http://www.w3.org/1999/02/22-rdf-syntax-ns#"
   xmlns:svg="http://www.w3.org/2000/svg"
   xmlns="http://www.w3.org/2000/svg"
   xmlns:sodipodi="http://sodipodi.sourceforge.net/DTD/sodipodi-0.dtd"
   xmlns:inkscape="http://www.inkscape.org/namespaces/inkscape"
   height="128"
   width="128"
   version="1.1"
   id="svg26"
   sodipodi:docname="wall-cracked.svg"
   inkscape:version="0.92.5 (2060ec1f9f, 2020-04-08)">
  <metadata
     id="metadata32">
    <rdf:RDF>
      <cc:Work
         rdf:about="">
        <dc:format>image/svg+xml</dc:format>
        <dc:type
           rdf:resource="http://purl.org/dc/dcmitype/StillImage" />
        <dc:title />
      </cc:Work>
    </rdf:RDF>
  </metadata>
  <defs
     id="defs30" />
  <sodipodi:namedview
     pagecolor="#ffffff"
     bordercolor="#666666"
     borderopacity="1"
     objecttolerance="10"
     gridtolerance="10"
     guidetolerance="10"
     inkscape:pageopacity="0"
     inkscape:pageshadow="2"
     inkscape:window-width="1920"
     inkscape:window-height="1136"
     id="namedview28"
     showgrid="false"
     inkscape:zoom="2.8284271"
     inkscape:cx="-146.62795"
     inkscape:cy="71.596844"
     inkscape:window-x="0"
     inkscape:window-y="309"
     inkscape:window-maximized="1"
     inkscape:current-layer="g6" />
  <g
     transform="translate(32,32)"
     id="g6"
     style="display:inline"
     inkscape:label="icon">
    <path
       d="m -11.570092,-26.159112 c -8.046606,0 -14.53112,6.478659 -14.53112,14.529283 v 87.212033 c 0,8.050623 6.475431,14.529285 14.53112,14.529285 h 87.186699 c 8.046608,0 14.531113,-6.478662 14.531113,-14.529285 v -87.212033 c 0,-8.041536 -6.484505,-14.529283 -14.531113,-14.529283 z"
       id="path2"
       inkscape:connector-curvature="0"
       style="display:inline;fill:#d0d0d0;fill-opacity:0;stroke:#ab5675;stroke-width:7.68145514;stroke-miterlimit:4;stroke-dasharray:30.72581683, 7.68145420000000012;stroke-dashoffset:0;stroke-opacity:1"
       inkscape:label="fill" />
    <path
       d="m -16,-32 c -8.86,0 -16,7.13 -16,15.99 v 95.98 c 0,8.86 7.13,15.99 16,15.99 h 96 c 8.86,0 16,-7.13 16,-15.99 V -16.01 C 96,-24.86 88.86,-32 80,-32 Z m 4,8 h 88 c 6.64,0 12,5.35 12,11.99 v 87.98 c 0,6.64 -5.35,11.99 -12,11.99 h -88 c -6.64,0 -12,-5.35 -12,-11.99 v -87.98 c 0,-6.64 5.36,-11.99 12,-11.99 z"
       id="path4"
       inkscape:connector-curvature="0"
       style="display:none;fill:#ab5675;fill-opacity:1"
       inkscape:label="border"
       sodipodi:nodetypes="ssssssssssssssssss" />
  </g>
</svg>
