[gd_scene load_steps=4 format=2]

[ext_resource path="res://Assets/wall.svg" type="Texture" id=1]
[ext_resource path="res://default_theme.tres" type="Theme" id=2]
[ext_resource path="res://Scripts/Interface.cs" type="Script" id=3]

[node name="Interface" type="Control"]
anchor_right = 1.0
anchor_bottom = 1.0
margin_right = -240.0
margin_bottom = -960.0
rect_min_size = Vector2( 0, 64 )
theme = ExtResource( 2 )
script = ExtResource( 3 )

[node name="Background" type="NinePatchRect" parent="."]
anchor_right = 1.0
anchor_bottom = 1.0
rect_min_size = Vector2( 450, 64 )
texture = ExtResource( 1 )
patch_margin_left = 20
patch_margin_top = 20
patch_margin_right = 20
patch_margin_bottom = 20

[node name="Points" type="Label" parent="Background"]
anchor_top = 0.5
anchor_bottom = 0.5
margin_left = 16.0
margin_top = -15.0
margin_right = 58.0
margin_bottom = 15.0
text = "1000"

[node name="Button" type="Button" parent="Background"]
anchor_left = 0.5
anchor_top = 0.5
anchor_right = 0.5
anchor_bottom = 0.5
margin_left = -99.0
margin_top = -18.0
margin_right = 99.0
margin_bottom = 18.0
text = "Toggle Play Mode"

[node name="Moves" type="Label" parent="Background"]
anchor_left = 1.0
anchor_top = 0.5
anchor_right = 1.0
anchor_bottom = 0.5
margin_left = -57.0
margin_top = -15.0
margin_right = -15.0
margin_bottom = 15.0
text = "100"
align = 2

[connection signal="pressed" from="Background/Button" to="." method="ToggleButtonPressed"]
