[gd_scene load_steps=3 format=2]

[ext_resource path="res://Assets/win.svg" type="Texture" id=1]
[ext_resource path="res://Scripts/WinBlock.cs" type="Script" id=2]

[node name="WinBlock" type="Sprite"]
scale = Vector2( 0.5, 0.5 )
texture = ExtResource( 1 )
centered = false
script = ExtResource( 2 )
